CAS Attributes
…
x = mutate(x, identification_id = as.integer(-8887))

RAWFRI

CASFRI

gis_area

shape_area or gis_area?

x = mutate(x, gis_area=if_else(is.na(shape_area),-8888, round(shape_area/10000,6)))
y = select(x, shape_area, gis_area)
y

## # A tibble: 927,177 x 2
##    shape_area gis_area
##         <dbl>    <dbl>
##  1      1361.   0.136 
##  2      1366.   0.137 
##  3      1863.   0.186 
##  4      2704.   0.270 
##  5      2798.   0.280 
##  6       614.   0.0614
##  7     11698.   1.17  
##  8      5556.   0.556 
##  9      1744.   0.174 
## 10      1541.   0.154 
## # ... with 927,167 more rows
…
gis_perimeter

x = mutate(x, gis_perimeter = round(shape_leng/1000,6))
y = select(x, shape_leng, gis_perimeter)
y

## # A tibble: 927,177 x 2
##    shape_leng gis_perimeter
##         <dbl>         <dbl>
##  1         NA            NA
##  2         NA            NA
##  3         NA            NA
##  4         NA            NA
##  5         NA            NA
##  6         NA            NA
##  7         NA            NA
##  8         NA            NA
##  9         NA            NA
## 10         NA            NA
## # ... with 927,167 more rows
…
inventory_area

x = mutate(x, inventory_area = round(shape_area/10000,6))
y = select(x, shape_area, inventory_area)
y

## # A tibble: 927,177 x 2
##    shape_area inventory_area
##         <dbl>          <dbl>
##  1      1361.         0.136 
##  2      1366.         0.137 
##  3      1863.         0.186 
##  4      2704.         0.270 
##  5      2798.         0.280 
##  6       614.         0.0614
##  7     11698.         1.17  
##  8      5556.         0.556 
##  9      1744.         0.174 
## 10      1541.         0.154 
## # ... with 927,167 more rows
…
